SubType,Spawn_Chance,Item_ID,Class,MaxCount,MinCount,LastItem
Amulet,80,common_amulet_01,Clothier,3,1
Pants,80,common_pants_01,Clothier,3,1
Pants,80,common_pants_06,Clothier,3,1
Shirt,90,common_shirt_02,Clothier,3,1
Shirt,90,common_shirt_01,Clothier,3,1
Skirt,80,common_skirt_01,Clothier,3,1
Skirt,80,common_skirt_02,Clothier,3,1
Skirt,80,common_skirt_03,Clothier,3,1
Skirt,80,common_skirt_04,Clothier,3,1
Skirt,80,common_skirt_05,Clothier,3,1
Pants,40,expensive_pants_01,Clothier,3,1
Shirt,40,expensive_shirt_02,Clothier,3,1
Skirt,40,expensive_skirt_03,Clothier,3,1
Skirt,40,expensive_skirt_02,Clothier,3,1
Skirt,40,expensive_skirt_01,Clothier,3,1
Ring,5,exquisite_ring_01,Clothier,1,1
Robe,10,exquisite_robe_01,Clothier,1,1
Shirt,10,exquisite_shirt_01,Clothier,1,1
Amulet,5,exquisite_amulet_01,Clothier,1,1
Skirt,15,exquisite_skirt_01,Clothier,1,1
Misc,50,misc_clothbolt_01,Clothier,5,1
Misc,50,misc_clothbolt_02,Clothier,5,1
Misc,50,misc_clothbolt_03,Clothier,5,1
Misc,80,misc_shears_01,Clothier,4,1
Misc,30,misc_de_foldedcloth00,Clothier,3,1
Robe,40,extravagant_robe_01,Clothier,1,1
Misc,80,misc_spool_01,Clothier,1,1
Amulet,60,common_amulet_05,Clothier,1,1
Glove,60,common_glove_right_01,Clothier,1,1
Glove,60,common_glove_left_01,Clothier,1,1
Pants,10,exquisite_pants_01,Clothier,1,1