SubType,Spawn_Chance,Item_ID,Class,MaxCount,MinCount,LastItem
Misc,50,misc_clothbolt_01,Trader,5,1,
Misc,50,misc_clothbolt_02,Trader,5,1,
Misc,50,misc_clothbolt_03,Trader,5,1,
Misc,80,misc_shears_01,Trader,4,1,
Misc,30,misc_de_foldedcloth00,Trader,3,1,
Misc,80,misc_spool_01,Trader,1,1,
Misc,30,light_de_candle_11_64,Trader,1,1,
Misc,30,misc_com_bottle_14,Trader,1,1,
Misc,30,misc_de_tankard_01,Trader,1,1,
Misc,30,misc_de_pot_glass_peach_02,Trader,1,1,
Misc,30,iron_cuirass,Trader,1,1,
Misc,30,iron_gauntlet_left,Trader,1,1,
Misc,30,iron_gauntlet_right,Trader,1,1,
Misc,30,light_de_lamp_03,Trader,1,1,
Misc,30,misc_de_bowl_01,Trader,1,1,
Misc,30,misc_de_pot_redware_01,Trader,1,1,
Misc,30,misc_soulgem_greater,Trader,1,1,
Misc,30,misc_soulgem_grand,Trader,1,1,
Misc,30,misc_soulgem_lesser,Trader,1,1,
Misc,30,misc_soulgem_petty,Trader,1,1,
Misc,30,misc_de_pitcher_01,Trader,1,1,
Misc,30,misc_de_pot_glass_peach_01,Trader,1,1,
Misc,30,potion_local_liquor_01,Trader,1,1,
Misc,30,potion_local_brew_01,Trader,1,1,
Misc,30,potion_comberry_brandy_01,Trader,1,1,
Misc,30,potion_comberry_wine_01,Trader,1,1,
Misc,30,potion_cyro_whiskey_01,Trader,1,1,
Misc,30,misc_de_goblet_01,Trader,1,1,
Misc,30,misc_com_bottle_12,Trader,1,1,
Misc,30,misc_de_pitcher_01,Trader,1,1,
Misc,30,misc_de_pot_glass_peach_02,Trader,1,1,
Misc,30,misc_com_bottle_08,Trader,1,1,
Misc,30,misc_com_wood_bowl_05,Trader,1,1,
Misc,30,misc_com_wood_bowl_04,Trader,1,1,
Misc,30,light_de_lantern_02_128,Trader,1,1,
Misc,30,light_de_lamp_06_128,Trader,1,1,
Misc,30,misc_de_lute_01,Trader,1,1,
Misc,30,misc_de_bowl_bugdesign_01,Trader,1,1,
Misc,30,misc_de_bowl_redware_01,Trader,1,1,
Misc,30,misc_de_pot_redware_01,Trader,1,1,
Misc,30,misc_de_pot_redware_02,Trader,1,1,
Misc,30,misc_de_pot_redware_04,Trader,1,1,
Misc,30,misc_de_bowl_01,Trader,1,1,
Misc,50,misc_de_glass_green_01,Trader,1,1,
Misc,50,misc_de_pot_blue_01,Trader,1,1,
Misc,50,misc_de_pot_blue_02,Trader,1,1,
Misc,50,misc_de_bowl_orange_green_01,Trader,1,1,
Misc,50,misc_de_basket_01,Trader,1,1,
Misc,50,misc_com_redware_vase,Trader,1,1,
Misc,50,misc_com_redware_plate,Trader,1,1,
Misc,50,misc_com_redware_platter,Trader,1,1,
Misc,50,misc_com_redware_pitcher,Trader,1,1,
Misc,50,misc_com_redware_cup,Trader,1,1,
Misc,50,misc_com_silverware_fork,Trader,1,1,
Misc,50,misc_com_silverware_spoon,Trader,1,1,
Misc,50,misc_com_silverware_knife,Trader,1,1,
Misc,50,misc_com_redware_bowl_01,Trader,1,1,
Misc,50,light_de_candle_05_64,Trader,1,1,
Misc,50,misc_uni_pillow_01,Trader,1,10,
Misc,50,light_de_lantern_05_128_s,Trader,1,1,
Misc,50,misc_com_plate_08,Trader,1,1,
Misc,50,misc_com_silverware_fork,Trader,1,1,
Misc,50,misc_com_silverware_spoon,Trader,1,1,
Misc,50,misc_com_silverware_knife,Trader,1,1,
Misc,50,light_com_candle_07_77,Trader,1,1,
Misc,50,misc_com_plate_03,Trader,1,1,
Misc,50,misc_com_plate_05,Trader,1,1,
Misc,50,misc_de_bowl_bugdesign_01,Trader,1,1,
Misc,50,misc_de_bowl_redware_01,Trader,1,1,
Misc,50,misc_de_pot_redware_01,Trader,1,1,
Misc,50,misc_de_pot_redware_02,Trader,1,1,
Misc,50,misc_de_pot_redware_04,Trader,1,1,